
CBSE-SENIOR SCHOOL CERTIFICATE EXAMINATION 2008                                                  Pg: 1

SCHOOL : 08788 VISHWA BHARATI PUB SCH ARUN VIHAR NOIDA UP      

ROLL NO CANDIDATE NAME.................  SUB MRK  GRD SUB MRK  GRD SUB MRK  GRD SUB MRK  GRD SUB MRK  GRD SUB MRK GRD  INTL-SUB RESULT

5686610 ANANYA CHATTERJEE                301 078   A2 041 094   A1 042 074   B1 043 076   B1 044 090   A1              A2 B1 B1 PASS
5686611 DAMINI DHALL                     301 076   A2 041 073   B1 042 067   B2 043 087   A1 044 089   A1              B2 B2 B2 PASS
5686612 MOHIT SATHOO                     301 079   A2 041 084   A2 042 087   A1 043 089   A1 044 095   A1              A2 A1 A1 PASS
5686613 PRATEEK ARORA                    301 078   A2 041 079   A2 042 084   A1 043 091   A1 044 093   A1              A2 B1 A2 PASS
5686614 APURVA BARLEWAR                  301 086   A1 041 055   C1 042 070   B1 043 082   A2 044 092   A1              A1 B1 A1 PASS
5686615 UMANG RAINA                      301 081   A2 041 068   B2 042 071   B1 043 090   A1 044 081   A2              B1 A2 B1 PASS
5686616 ANIKA MAGAN                      301 084   A1 042 081   A2 043 088   A1 044 087   A2 037 096   A1              A1 B1 A2 PASS
5686617 PRERNA GOEL                      301 084   A1 042 077   A2 043 078   B1 044 086   A2 037 086   A2              A1 B1 A2 PASS
5686618 ANSHULA REVO                     301 086   A1 042 056   D1 043 069   B2 044 070   B2 037 082   B1              B1 B1 B2 PASS
5686619 PARUL VARSHNEY                   301 088   A1 042 092   A1 043 091   A1 044 096   A1 045 097   A1              A2 A1 A2 PASS
5686620 PURNIMA SINGH                    301 085   A1 042 075   B1 043 085   A2 044 091   A1 045 092   A1              A1 B2 A2 PASS
5686621 VAISHALI CHAKRABORTY             301 085   A1 042 072   B1 043 082   A2 044 092   A1 045 091   A1              A2 A2 A2 PASS
5686622 ERUM FATIMA                      301 080   A2 042 068   B2 043 077   B1 044 065   C1 048 086   A2              A2 A1 B1 PASS
5686623 YUSUF MD NASIR KHAN              301 082   A1 042 065   B2 043 083   A2 044 082   A2 048 091   A1              B1 A1 B1 PASS
5686624 NAMAN BHALLA                     301 083   A1 042 080   A2 043 087   A1 044 093   A1 067 080   B1              A2 A2 A1 PASS
5686625 AAKRITI PASSI                    301 080   A2 041 084   A2 042 073   B1 043 084   A2 030 069   A2              A1 B1 B2 PASS
5686626 AKSHAY GUPTA                     301 085   A1 041 049   C2 042 057   C2 043 062   C2 030 056   B2              B1 A1 B2 PASS
5686627 AMAN SHARMA                      301 079   A2 041 058   C1 042 071   B1 043 086   A1 030 085   A1              B1 A1 B2 PASS
5686628 ANEESH TIKU                      301 083   A1 041 064   B2 042 064   C1 043 065   C1 030 049   C1              C1 A2 B2 PASS
5686629 KHUSHBOO TALWAR                  301 090   A1 041 074   B1 042 062   C1 043 074   B1 030 069   A2              A2 A1 B1 PASS
5686630 MRITHINJAI S                     301 092   A1 041 095   A1 042 093   A1 043 094   A1 030 096   A1              A1 A1 A1 PASS
5686631 NIVRITTI KAUL                    301 085   A1 041 095   A1 042 085   A1 043 095   A1 030 078   A2              A2 A2 A1 PASS
5686632 PALLAVI JAIN                     301 092   A1 041 095   A1 042 085   A1 043 090   A1 030 095   A1              A2 B1 A2 PASS
5686633 RIJU PRAKASH                     301 095   A1 041 090   A1 042 069   B2 043 080   A2 030 085   A1              B1 B1 B1 PASS
5686634 SHANJUKTA NATH                   301 090   A1 041 097   A1 042 091   A1 043 098   A1 030 092   A1              A1 A1 A1 PASS
5686635 SHANTANU GHILDIYAL               301 091   A1 041 063   B2 042 066   B2 043 077   B1 030 074   A2              B1 B2 B2 PASS
5686636 SUMEER YACHU                     301 086   A1 041 081   A2 042 066   B2 043 089   A1 030 079   A1              B1 A2 B1 PASS
5686637 SWAJASHA MOITRA                  301 093   A1 041 072   B1 042 069   B2 043 072   B2 030 078   A2              A2 A2 B1 PASS
5686638 TANUSREE DEY                     301          041          042          043          030                                ABST
5686639 URVI VASHISHTHA                  301 080   A2 041 087   A2 042 065   B2 043 068   B2 030 051   C1              B2 B1 B2 PASS
5686640 VIVEK BHARDWAJ                   301 083   A1 041 059   C1 042 062   C1 043 070   B2 030 058   B2              B2 A2 B1 PASS
5686641 ADITYA TOMAR                     301 085   A1 041 078   A2 042 077   A2 043 094   A1 048 092   A1              A1 A1 A1 PASS
5686642 BHAIRAV SHARMA                   301 092   A1 041 068   B2 042 084   A1 043 089   A1 048 080   B1              A2 B1 A2 PASS
5686643 DEEPAK DAYAL                     301 064   C1 041 054   C1 042 057   C2 043 066   C1 048 079   B1              C1 B2 B1 PASS
5686644 KARAN KRISHNANI                  301 078   A2 041 053   C2 042 055   D1 043 064   C1 048 074   C1              C1 A2 C1 PASS
5686645 MOHIT GANJOO                     301 094   A1 041 067   B2 042 069   B2 043 070   B2 048 098   A1              B1 A1 A1 PASS
5686646 NAVNEET SINGH CHAUHAN            301 082   A1 041 065   B2 042 063   C1 043 079   A2 048 088   A1              A1 A2 A2 PASS
5686647 PRANJAL SINGH                    301 081   A2 041 059   C1 042 061   C1 043 062   C2 048 081   B1              B1 A2 B2 PASS
5686648 PRATEEK KOHLI                    301 076   A2 041 051   C2 042 062   C1 043 066   C1 048 076   B2              A2 A1 B1 PASS
5686649 SHARAD KUMAR                     301 071   B1 041 049   C2 042 055   D1 043 057   D1 048 067   C2              C1 C1 B2 PASS
5686650 ANKIT PANDEY                     301 082   A1 041 084   A2 042 075   B1 043 082   A2 067 084   A2              A2 A2 A2 PASS
5686651 ANUNEETI MATHUR                  301 090   A1 041 066   B2 042 079   A2 043 092   A1 067 091   A1              A1 B1 A1 PASS
5686652 HIMIKA CHANDWANI                 301 080   A2 041 069   B1 042 068   B2 043 082   A2 067 091   A1              B1 B2 A2 PASS
5686653 KASHIF ISFAQUE                   301 077   A2 041 042   D1 042 065   B2 043 061   C2 067 086   A2              B2 B2 B1 PASS
5686654 NEHA SHARMA                      301 090   A1 041 068   B2 042 081   A2 043 094   A1 067 093   A1              A2 B2 B1 PASS
5686655 SAMEER GANGWAR                   301 080   A2 041 054   C1 042 070   B1 043 083   A2 067 074   C1              A2 A2 B1 PASS
5686656 SHIPRA KHANNA                    301 085   A1 041 081   A2 042 073   B1 043 088   A1 067 091   A1              A2 B2 B1 PASS
5686657 AKANKSHA VARSHNEY                301 090   A1 041 044   D1 042 072   B1 043 084   A2 045 093   A1              A1 B1 A2 PASS
5686658 CHANCHAL PRABHAKER               301 092   A1 041 080   A2 042 085   A1 043 090   A1 045 087   A2              A2 A2 B1 PASS
5686659 DISHA NAYYAR                     301 087   A1 041 075   B1 042 068   B2 043 080   A2 045 091   A1              A1 B2 B1 PASS
5686660 HIMAKSHI GOEL                    301 094   A1 041 074   B1 042 084   A1 043 084   A2 045 083   B1              B1 B2 A2 PASS
5686661 NAMAN GUPTA                      301 082   A1 041 095   A1 042 083   A2 043 083   A2 045 070   C2              B1 B2 B1 PASS
5686662 SHWETA SAHIB                     301 084   A1 041 055   C1 042 081   A2 043 088   A1 045 072   C1              B2 B1 A2 PASS
5686663 SONAL R CHOUDHURY                301 092   A1 041 077   B1 042 086   A1 043 085   A2 045 087   A2              A1 B2 B1 PASS
5686664 SUCHITRA R NAIR                  301 090   A1 041 095   A1 042 076   A2 043 093   A1 045 073   C1              B2 B1 A2 PASS
5686665 SURABHI RAZDAN                   301 089   A1 041 098   A1 042 089   A1 043 094   A1 045 090   A2              A2 B1 A2 PASS
5686666 TAPAS SHIVPURI                   301 091   A1 041 059   C1 042 062   C1 043 078   B1 045 067   C2              B1 B1 A2 PASS
5686667 UTKARSH SHEKHAR                  301 077   A2 041 066   B2 042 063   C1 043 078   B1 045 071   C2              C1 B2 B1 PASS
5686668 NITISH GARG                      301 085   A1 041 074   B1 042 064   C1 043 073   B1 048 076   B2              B2 A1 B2 PASS
CBSE-SENIOR SCHOOL CERTIFICATE EXAMINATION 2008                                                  Pg: 2

SCHOOL : 08788 VISHWA BHARATI PUB SCH ARUN VIHAR NOIDA UP      

ROLL NO CANDIDATE NAME.................  SUB MRK  GRD SUB MRK  GRD SUB MRK  GRD SUB MRK  GRD SUB MRK  GRD SUB MRK GRD  INTL-SUB RESULT

5686669 SHALIN BHAT                      301 093   A1 041 058   C1 042 070   B1 043 091   A1 048 084   A2              B2 A1 B2 PASS
5686670 AAYUSH DHAR                      301 070   B2 041 056   C1 042 054   D1 043 066   C1 048 074   C1              B2 A1 B2 PASS
5686671 AKSHARA RAWAT                    301 088   A1 041 064   B2 042 066   B2 043 081   A2 037 085   A2              A2 A2 B1 PASS
5686672 AAKSHI AGARWAL                   301 093   A1 041 084   A2 042 084   A1 043 089   A1 083 093   A1              A1 B1 A1 PASS
5686673 ABHIJEET PANDEY                  301 075   B1 041 068   B2 042 069   B2 043 065   C1 083 067   C1              B2 A2 B2 PASS
5686674 ABHIRUP MUKHERJEE                301 087   A1 041 049   C2 042 072   B1 043 073   B1 083 065   C2              B2 B1 B1 PASS
5686675 ABHISHEK AHUJA                   301 088   A1 041 050   C2 042 065   B2 043 078   B1 083 066   C1              B2 B1 B2 PASS
5686676 ABHISHEK SHARMA                  301 081   A2 041 083   A2 042 076   A2 043 081   A2 083 083   A2              B1 B1 B1 PASS
5686677 AKANKSHA THAPLIYAL               301 085   A1 041 071   B1 042 074   B1 043 083   A2 083 080   B1              A1 A2 A2 PASS
5686678 ANIRUDH S GOEL                   301 092   A1 041 086   A2 042 090   A1 043 089   A1 083 089   A1              A1 B1 A1 PASS
5686679 ANJALI GUPTA                     301 084   A1 041 090   A1 042 073   B1 043 071   B2 083 084   A2              A2 B1 B1 PASS
5686680 ANURAG RANJAN                    301 085   A1 041 074   B1 042 085   A1 043 086   A1 083 078   B1              B1 A2 B1 PASS
5686681 ARUSHI BAGATI                    301 092   A1 041 062   B2 042 068   B2 043 089   A1 083 074   B2              A2 B2 B1 PASS
5686682 ASHWIN KUMAR S                   301 080   A2 041 095   A1 042 087   A1 043 088   A1 083 087   A2              A1 B1 A2 PASS
5686683 DEEPAK KALRA                     301 089   A1 041 089   A1 042 083   A2 043 090   A1 083 091   A1              A2 B1 A1 PASS
5686684 DHRUV SINHA                      301 090   A1 041 071   B1 042 067   B2 043 078   B1 083 086   A2              B1 A2 B1 PASS
5686685 GOWRI SHANKAR S                  301 082   A1 041 098   A1 042 081   A2 043 082   A2 083 076   B1              B1 B2 A2 PASS
5686686 M B ASHWIN                       301 089   A1 041 080   A2 042 075   B1 043 082   A2 083 073   B2              B2 B2 B2 PASS
5686687 MANDAVILLE KARTIK                301 090   A1 041 095   A1 042 091   A1 043 087   A1 083 096   A1              A2 B2 A2 PASS
5686688 MANISH KAK                       301 091   A1 041 080   A2 042 075   B1 043 085   A2 083 085   A2              B1 B2 B2 PASS
5686689 MIKHIL SAXENA                    301 085   A1 041 089   A1 042 084   A1 043 074   B1 083 099   A1              A2 A2 A2 PASS
5686690 NAMAN GOEL                       301 083   A1 041 064   B2 042 067   B2 043 069   B2 083 072   B2              C1 B1 B2 PASS
5686691 NAVNEET RANDHAWA                 301 090   A1 041 070   B1 042 067   B2 043 076   B1 083 082   A2              B1 B2 B1 PASS
5686692 NEHA MISHRA                      301 087   A1 041 082   A2 042 068   B2 043 071   B2 083 066   C1              B1 B2 B1 PASS
5686693 NIKITA MANRAL                    301 091   A1 041 074   B1 042 071   B1 043 075   B1 083 090   A1              A1 B2 A1 PASS
5686694 RISHABH ABHINAV BHUINYA          301 079   A2 041 079   A2 042 062   C1 043 068   B2 083 082   A2              B2 B1 B2 PASS
5686695 RISHABH GOEL                     301 078   A2 041 039   D1 042 056   D1 043 049   D2 083 075   B2              B2 B2 B2 PASS
5686696 RISHABH PRASAD                   301 092   A1 041 089   A1 042 095   A1 043 085   A2 083 092   A1              A2 B1 A1 PASS
5686697 SAHIL KHANNA                     301 086   A1 041 097   A1 042 084   A1 043 078   B1 083 086   A2              B2 B1 B1 PASS
5686698 SIDDHANT NARAIN MATHUR           301 080   A2 041 056   C1 042 057   C2 043 056   D1 083 064   C2              B2 B2 A2 PASS
5686699 SRIYA CHAKRABORTY                301 091   A1 041 097   A1 042 081   A2 043 073   B1 083 085   A2              B2 B1 A1 PASS
5686700 TANIMA GUPTA                     301 088   A1 041 075   B1 042 084   A1 043 066   C1 083 088   A2              A1 B1 A1 PASS
5686701 VISHISHT KOHLI                   301 076   A2 041 074   B1 042 071   B1 043 073   B1 083 086   A2              B2 B2 B2 PASS
5686702 VIVEK KUMAR                      301 085   A1 041 084   A2 042 090   A1 043 091   A1 083 081   B1              A1 A2 A1 PASS
5686703 ABHISHEK MAHESHWARI              301 069   B2 054 084   A2 055 091   A1 030 064   B1 041 084   A2              B2 C1 A2 PASS
5686704 AARUSHI SINGH                    301 065   C1 054 076   B1 055 069   B2 030 062   B1 041 066   B2              C1 B2 B1 PASS
5686705 B AKILA                          301 080   A2 054 087   A1 055 079   A2 030 060   B2 041 082   A2              B2 B2 B1 PASS
5686706 DHAWAL WADHWA                    301 083   A1 054 096   A1 055 097   A1 030 088   A1 041 089   A1              A1 B2 A1 PASS
5686707 DIVYA CHAUDHARY                  301 070   B2 054 064   B2 055 080   A2 030 061   B2 041 056   C1              A2 A2 B1 PASS
5686708 GAURAV NEGI                      301 085   A1 054 089   A1 055 081   A2 030 059   B2 041 084   A2              B1 A1 B2 PASS
5686709 GUNJAN ARORA                     301 075   B1 054 091   A1 055 094   A1 030 059   B2 041 057   C1              B2 B2 A2 PASS
5686710 ISHA GAUR                        301 070   B2 054 093   A1 055 089   A1 030 091   A1 041 062   B2              B2 B2 A2 PASS
5686711 KANIKA ANAND                     301 081   A2 054 090   A1 055 079   A2 030 065   B1 041 065   B2              B2 B2 A2 PASS
5686712 KARANDEEP SINGH                  301 066   B2 054 085   A2 055 086   A2 030 078   A2 041 074   B1              B2 B2 B2 PASS
5686713 MANAS SAINI                      301 068   B2 054 073   B1 055 089   A1 030 061   B2 041 064   B2              B2 B2 B1 PASS
5686714 MAYANK AGRAWAL                   301 073   B1 054 078   A2 055 058   C1 030 046   C2 041 065   B2              B2 B2 C1 PASS
5686715 MONU CHAUHAN                     301 082   A1 054 081   A2 055 088   A1 030 070   A2 041 070   B1              B2 B2 A2 PASS
5686716 NISHANT PAL                      301 060   C2 054 079   A2 055 076   B1 030 071   A2 041 058   C1              B2 B2 B2 PASS
5686717 NISHEET KHARE                    301 079   A2 054 082   A2 055 093   A1 030 064   B1 041 065   B2              B2 B1 B1 PASS
5686718 NIVEDITA DEB PURKAYASTHA         301 075   B1 054 065   B2 055 072   B1 030 052   C1 041 064   B2              B1 B2 C1 PASS
5686719 NUPUR NEGI                       301 070   B2 054 085   A2 055 094   A1 030 062   B1 041 062   B2              B2 B2 C1 PASS
5686720 PITTU BHANU SMITA                301 079   A2 054 083   A2 055 090   A1 030 062   B1 041 066   B2              B2 B2 B1 PASS
5686721 PRATEEK GARG                     301 075   B1 054 066   B2 055 092   A1 030 053   C1 041 062   B2              B2 B2 B2 PASS
5686722 PRATEEK SHARMA                   301 070   B2 054 070   B1 055 075   B1 030 071   A2 041 068   B2              B2 B2 B2 PASS
5686723 PRERNA AGARWAL                   301 079   A2 054 088   A1 055 089   A1 030 059   B2 041 095   A1              B1 B1 A2 PASS
5686724 PULKIT JAIN                      301 079   A2 054 088   A1 055 096   A1 030 095   A1 041 092   A1              B1 B2 A1 PASS
5686725 PULKIT MEHRA                     301 071   B1 054 094   A1 055 095   A1 030 085   A1 041 091   A1              B1 B2 A1 PASS
5686726 SAKSHI RAJPUT                    301 080   A2 054 086   A1 055 087   A2 030 066   B1 041 078   A2              B1 B2 B1 PASS
5686727 SALONI YADAV                     301 082   A1 054 093   A1 055 085   A2 030 077   A2 041 064   B2              B2 B2 A2 PASS
CBSE-SENIOR SCHOOL CERTIFICATE EXAMINATION 2008                                                  Pg: 3

SCHOOL : 08788 VISHWA BHARATI PUB SCH ARUN VIHAR NOIDA UP      

ROLL NO CANDIDATE NAME.................  SUB MRK  GRD SUB MRK  GRD SUB MRK  GRD SUB MRK  GRD SUB MRK  GRD SUB MRK GRD  INTL-SUB RESULT

5686728 SHALINI YADAV                    301 067   B2 054 087   A1 055 092   A1 030 072   A2 041 075   B1              B1 A1 B1 PASS
5686729 SHIVAM GUPTA                     301 061   C1 054 061   C1 055 060   C1 030 041   D1 041 057   C1              B2 C1 B2 PASS
5686730 SHRADHA SHARMA                   301 071   B1 054 080   A2 055 084   A2 030 058   B2 041 069   B1              B2 B2 B2 PASS
5686731 SNEHA BAJAJ                      301 075   B1 054 078   A2 055 090   A1 030 068   B1 041 063   B2              B2 B2 B2 PASS
5686732 SONALI SHARMA                    301 084   A1 054 078   A2 055 079   A2 030 040   D1 041 060   C1              B2 B2 B2 PASS
5686733 VAISHALI AHUJA                   301 082   A1 054 079   A2 055 094   A1 030 090   A1 041 090   A1              B1 B2 B2 PASS
5686734 VARUN KAUL                       301 080   A2 054 088   A1 055 097   A1 030 088   A1 041 091   A1              A1 B2 A1 PASS
5686735 SHRADHA PATHYA                   301 091   A1 054 086   A1 055 074   B1 030 048   C2 067 084   A2              B1 A2 A2 PASS
5686736 SUKSHAM DHAR                     301 078   A2 054 058   C1 055 066   B2 030 061   B2 067 072   C1              B1 C1 B2 PASS
5686737 ADITYA SHARMA                    301 072   B1 054 084   A2 055 050   D1 030 071   A2 067 081   B1              C1 B1 B2 PASS
5686738 AYUSH WAHI                       301 081   A2 054 074   B1 055 087   A2 030 064   B1 067 085   A2              B1 B2 B1 PASS
5686739 BHARTI VERMA                     301 076   A2 054 081   A2 055 077   B1 030 065   B1 067 085   A2              A2 A2 A1 PASS
5686740 CHANDRIKA ARORA                  301 075   B1 054 091   A1 055 073   B1 030 084   A1 067 082   B1              B1 C1 A2 PASS
5686741 ISHA SETHI                       301 074   B1 054 078   A2 055 085   A2 030 046   C2 067 083   B1              A1 B1 B1 PASS
5686742 MANISHA CHOWDHURY                301 077   A2 054 081   A2 055 068   B2 030 075   A2 067 089   A1              A1 B2 A2 PASS
5686743 PREETI GOEL                      301 067   B2 054 089   A1 055 050   D1 030 081   A1 067 078   B2              B1 A2 B2 PASS
5686744 ROHIT PATIYAL                    301 069   B2 054 049   C2 055 052   C2 030 033   D2 067 076   B2              B2 B2 C1 PASS
5686745 R SAURABH                        301 068   B2 054 068   B2 055 082   A2 030 071   A2 067 082   B1              C1 B1 B2 PASS
5686746 SEEMA MISHRA                     301 060   C2 054 078   A2 055 068   B2 030 055   B2 067 071   C1              B1 B1 B1 PASS
5686747 ANKITA CHAKRAVARTY               301 086   A1 054 087   A1 055 088   A1 030 071   A2 037 083   B1              A2 B2 A1 PASS
5686748 ANUJ BRAVE                       301 075   B1 054 084   A2 055 082   A2 030 069   A2 037 081   B1              A2 B1 B1 PASS
5686749 DIVLEEN KAUR                     301 057   C2 054 083   A2 055 051   D1 030 055   B2 037 059   D1              B1 B2 B2 PASS
5686750 MANSI SINGH                      301 080   A2 054 094   A1 055 071   B1 030 060   B2 037 081   B1              B1 B2 A1 PASS
5686751 MEENAKSHI AWANA                  301 077   A2 054 090   A1 055 087   A2 030 089   A1 037 081   B1              B1 B2 A1 PASS
5686752 SAMREEN PARVEEN                  301 065   C1 054 088   A1 055 093   A1 030 083   A1 037 074   B2              B2 C1 A2 PASS
5686753 SHREYASI SHUKLA                  301 084   A1 054 088   A1 055 073   B1 030 054   C1 037 082   B1              A2 A2 A2 PASS
5686754 ABHISHEK ANAND                   301 077   A2 054 075   B1 055 073   B1 030 058   B2 048 094   A1              A2 A2 B1 PASS
5686755 ANSHUM SIJWAL                    301 078   A2 054 069   B2 055 053   C2 030 061   B2 048 084   A2              B2 B1 C1 PASS

Disclaimer : Neither NIC nor CBSE is responsible for any inadvertent error that may have crept in the results
being sent through E-mail.  The results sent through E-mail are for   immediate information to the examinees.
These cannot be treated as original mark sheets.  Original mark sheets have been issued by the Board seperately